\relax 
\providecommand\hyper@newdestlabel[2]{}
\providecommand\HyperFirstAtBeginDocument{\AtBeginDocument}
\HyperFirstAtBeginDocument{\ifx\hyper@anchor\@undefined
\global\let\oldcontentsline\contentsline
\gdef\contentsline#1#2#3#4{\oldcontentsline{#1}{#2}{#3}}
\global\let\oldnewlabel\newlabel
\gdef\newlabel#1#2{\newlabelxx{#1}#2}
\gdef\newlabelxx#1#2#3#4#5#6{\oldnewlabel{#1}{{#2}{#3}}}
\AtEndDocument{\ifx\hyper@anchor\@undefined
\let\contentsline\oldcontentsline
\let\newlabel\oldnewlabel
\fi}
\fi}
\global\let\hyper@last\relax 
\gdef\HyperFirstAtBeginDocument#1{#1}
\providecommand\HyField@AuxAddToFields[1]{}
\providecommand\HyField@AuxAddToCoFields[2]{}
\@writefile{toc}{\contentsline {section}{Main}{1}{section*.1}}
\newlabel{main}{{}{1}{Main}{section*.1}{}}
\@writefile{toc}{\contentsline {section}{IMPORT: Reference}{1}{section*.2}}
\newlabel{import-reference}{{}{1}{IMPORT: Reference}{section*.2}{}}
\@writefile{toc}{\contentsline {subsection}{Hidden Reference subheading}{1}{section*.3}}
\newlabel{hidden-reference-subheading}{{}{1}{Hidden Reference subheading}{section*.3}{}}
\@writefile{toc}{\contentsline {subsection}{Heading 1}{1}{section*.4}}
\newlabel{heading-1}{{}{1}{Heading 1}{section*.4}{}}
\@writefile{toc}{\contentsline {subsection}{Heading 2}{1}{section*.5}}
\newlabel{heading-2}{{}{1}{Heading 2}{section*.5}{}}
\@writefile{toc}{\contentsline {section}{IMPORT: Heading 1}{1}{section*.6}}
\newlabel{import-heading-1}{{}{1}{IMPORT: Heading 1}{section*.6}{}}
\@writefile{toc}{\contentsline {section}{Appendix}{1}{section*.7}}
\newlabel{appendix}{{}{1}{Appendix}{section*.7}{}}
