\relax 
\providecommand\hyper@newdestlabel[2]{}
\providecommand\HyperFirstAtBeginDocument{\AtBeginDocument}
\HyperFirstAtBeginDocument{\ifx\hyper@anchor\@undefined
\global\let\oldcontentsline\contentsline
\gdef\contentsline#1#2#3#4{\oldcontentsline{#1}{#2}{#3}}
\global\let\oldnewlabel\newlabel
\gdef\newlabel#1#2{\newlabelxx{#1}#2}
\gdef\newlabelxx#1#2#3#4#5#6{\oldnewlabel{#1}{{#2}{#3}}}
\AtEndDocument{\ifx\hyper@anchor\@undefined
\let\contentsline\oldcontentsline
\let\newlabel\oldnewlabel
\fi}
\fi}
\global\let\hyper@last\relax 
\gdef\HyperFirstAtBeginDocument#1{#1}
\providecommand\HyField@AuxAddToFields[1]{}
\providecommand\HyField@AuxAddToCoFields[2]{}
\@writefile{toc}{\contentsline {section}{Main}{1}{section*.1}}
\newlabel{testIIIdotmd:Main}{{}{1}{Main}{section*.1}{}}
\@writefile{toc}{\contentsline {section}{Test 1(import)}{1}{section*.2}}
\newlabel{dotforwardslashtestIdotmd:TestspaceI}{{}{1}{Test 1(import)}{section*.2}{}}
\@writefile{toc}{\contentsline {subsection}{Test 2}{1}{section*.3}}
\newlabel{dotforwardslashtestIdotmd:TestspaceIsemicolonTestspaceII}{{}{1}{Test 2}{section*.3}{}}
\@writefile{toc}{\contentsline {section}{Appendix}{1}{section*.4}}
\newlabel{appendix}{{}{1}{Appendix}{section*.4}{}}
\@writefile{toc}{\contentsline {subsection}{Test 2}{1}{section*.5}}
\newlabel{dotforwardslashtestIdotmd:TestspaceIsemicolonTestspaceII}{{}{1}{Test 2}{section*.5}{}}
